[gd_scene load_steps=2 format=3 uid="uid://r5iiugo1juap"]

[ext_resource type="Script" path="res://Scripts/ai/Chase_State.gd" id="1_dn3f7"]

[node name="Chase_State" type="Node"]
script = ExtResource("1_dn3f7")
