[gd_scene load_steps=2 format=3 uid="uid://eu3bvqg6a56g"]

[ext_resource type="Script" path="res://Scripts/Quest/Conditional_Evaluator.gd" id="1_pwpp2"]

[node name="Conditional_Evaluator" type="Node"]
script = ExtResource("1_pwpp2")
