[gd_scene load_steps=3 format=3 uid="uid://cesobfj66d6gg"]

[ext_resource type="Script" path="res://Scripts/cinematics/Cutscene.gd" id="1_g58cu"]
[ext_resource type="Resource" uid="uid://dlfgwrehxi6px" path="res://Resources/mini_scene.tres" id="2_vnxip"]

[node name="Cutscene" type="Node3D"]
script = ExtResource("1_g58cu")
scenes = Array[Resource("res://Scripts/Resources/MiniScene.gd")]([ExtResource("2_vnxip"), null])
