[gd_scene load_steps=2 format=3 uid="uid://5wykqpo45yb7"]

[ext_resource type="Script" path="res://Scripts/interaction/on_off_animation.gd" id="1_8fx2g"]

[node name="on_off_animation_interactable" type="Node"]
script = ExtResource("1_8fx2g")

[node name="AnimationPlayer" type="AnimationPlayer" parent="."]
