[gd_scene load_steps=2 format=3 uid="uid://un4uli7mfnkc"]

[ext_resource type="Script" path="res://Scripts/interaction/outline_interactable.gd" id="1_q1ucf"]

[node name="outline_interactable" type="Node"]
script = ExtResource("1_q1ucf")
