[gd_scene load_steps=2 format=3 uid="uid://ciao2ri2ymfd7"]

[ext_resource type="Script" path="res://Scripts/Movement/Run.gd" id="1_1k7ps"]

[node name="Run" type="Node"]
script = ExtResource("1_1k7ps")
