[gd_scene load_steps=2 format=3 uid="uid://grveal0agrem"]

[ext_resource type="Script" path="res://Scripts/squish_interactable.gd" id="1_0qnk7"]

[node name="squish_interactable" type="Node3D"]
script = ExtResource("1_0qnk7")
