[gd_resource type="StandardMaterial3D" load_steps=3 format=3 uid="uid://c63ddhnvi8omk"]

[ext_resource type="Texture2D" uid="uid://djeyqnu3xwxk1" path="res://Textures/Tombstones/TombStone2_BaseColor.png" id="1_l5a30"]
[ext_resource type="Texture2D" uid="uid://gjfkhi3fktkk" path="res://Textures/Tombstones/TombStone2_Normal.png" id="2_5xcgg"]

[resource]
albedo_texture = ExtResource("1_l5a30")
normal_enabled = true
normal_texture = ExtResource("2_5xcgg")
