[gd_resource type="StandardMaterial3D" load_steps=3 format=3 uid="uid://bvk1mpyrxr4cq"]

[ext_resource type="Texture2D" uid="uid://v1sqwrpb8kfg" path="res://Textures/Tombstones/TombStone3_BaseColor.png" id="1_8kcjr"]
[ext_resource type="Texture2D" uid="uid://dn5x7tljrmkfj" path="res://Textures/Tombstones/TombStone3_Normal.png" id="2_7kj1r"]

[resource]
albedo_texture = ExtResource("1_8kcjr")
normal_enabled = true
normal_texture = ExtResource("2_7kj1r")
