[gd_resource type="Resource" script_class="Mini_Scene" load_steps=2 format=3 uid="uid://cceqfrvosr63i"]

[ext_resource type="Script" path="res://Scripts/Resources/MiniScene.gd" id="1_h2qnb"]

[resource]
script = ExtResource("1_h2qnb")
position = Vector3(-13.7366, 0.847352, -1.79557)
rotation = Vector3(-0.228638, -2.64412, 0)
camera_transform = Object(Node3D,"_import_path":NodePath(""),"unique_name_in_owner":false,"process_mode":0,"process_priority":0,"process_physics_priority":0,"process_thread_group":0,"editor_description":"","transform":Transform3D(0.801776, -0.0914282, -0.59059, 0, 0.988228, -0.152986, 0.597625, 0.12266, 0.792337, -14.3193, 0.901909, -0.42853),"rotation_edit_mode":0,"rotation_order":2,"top_level":false,"visible":true,"visibility_parent":NodePath(""),"script":null)

animation_param_path = ""
animation_id = ""
dialouge_id = "hand_couple"
dialouge_name = "Tim"
dialouge_url = ""
dialouge_progress = 5
