[gd_resource type="Resource" script_class="Mini_Scene" load_steps=3 format=3 uid="uid://blyugr01f2063"]

[ext_resource type="Script" path="res://Scripts/Resources/MiniScene.gd" id="1_6mphr"]
[ext_resource type="AudioStream" uid="uid://baqwh71j4nqqk" path="res://Sounds/Demo_Sounds/Creatures, Monster, Cave Monster, Voice 01 SND8996 - Pitch 106.wav" id="2_yuild"]

[resource]
script = ExtResource("1_6mphr")
position = Vector3(-13.7366, 0.847352, -1.79557)
rotation = Vector3(-0.228638, -2.64412, 0)
camera_transform = Object(Node3D,"_import_path":NodePath(""),"unique_name_in_owner":false,"process_mode":0,"process_priority":0,"process_physics_priority":0,"process_thread_group":0,"editor_description":"","transform":Transform3D(-0.878792, 0.108159, -0.464786, 0, 0.973976, 0.226651, 0.477205, 0.199179, -0.855922, -13.7366, 0.847352, -1.79557),"rotation_edit_mode":0,"rotation_order":2,"top_level":false,"visible":true,"visibility_parent":NodePath(""),"script":null)

animation_param_path = ""
animation_id = ""
dialouge_id = "hand_couple"
dialouge_name = "Tim"
dialouge_url = ""
dialouge_progress = 4
sfx = ExtResource("2_yuild")
