[gd_resource type="Resource" script_class="Mini_Scene" load_steps=3 format=3 uid="uid://dlfgwrehxi6px"]

[ext_resource type="Script" path="res://Scripts/Resources/MiniScene.gd" id="1_b36f1"]
[ext_resource type="AudioStream" uid="uid://cwvaq8gk21vav" path="res://packs/SFX/Zombie.wav" id="2_kwobj"]

[resource]
resource_local_to_scene = true
script = ExtResource("1_b36f1")
position = Vector3(-0.123201, 1.24334, 2.51113)
rotation = Vector3(0, -3.02148, 0)
camera_transform = Object(Node3D,"_import_path":NodePath(""),"unique_name_in_owner":false,"process_mode":0,"process_priority":0,"process_physics_priority":0,"process_thread_group":0,"editor_description":"","transform":Transform3D(-0.992795, 0, -0.119825, 0, 1, 0, 0.119825, 0, -0.992795, -0.123201, 1.24334, 2.51113),"rotation_edit_mode":0,"rotation_order":2,"top_level":false,"visible":true,"visibility_parent":NodePath(""),"script":null)

animator = Object(AnimationTree,"_import_path":NodePath(""),"unique_name_in_owner":false,"process_mode":0,"process_priority":0,"process_physics_priority":0,"process_thread_group":0,"editor_description":"","tree_root":null,"anim_player":NodePath("../AnimationPlayer"),"advance_expression_base_node":NodePath("."),"active":true,"process_callback":1,"audio_max_polyphony":32,"root_motion_track":NodePath(""),"script":null)

animation_param_path = "parameters/Transition/current_state"
animation_id = "Attack"
dialouge_id = "npc_3"
dialouge_name = "Skeletom Sam"
dialouge_url = ""
dialouge_progress = 1
sfx = ExtResource("2_kwobj")
