[gd_resource type="Resource" script_class="Mini_Scene" load_steps=3 format=3 uid="uid://dkwcup742nubi"]

[ext_resource type="Script" path="res://Scripts/Resources/MiniScene.gd" id="1_kuqu2"]
[ext_resource type="AudioStream" uid="uid://cwvaq8gk21vav" path="res://packs/SFX/Zombie.wav" id="2_boo3h"]

[resource]
resource_local_to_scene = true
script = ExtResource("1_kuqu2")
position = Vector3(-0.123201, 1.24334, 2.51113)
rotation = Vector3(0, -3.02148, 0)
camera_transform = Object(Node3D,"_import_path":NodePath(""),"unique_name_in_owner":false,"process_mode":0,"process_priority":0,"process_physics_priority":0,"process_thread_group":0,"editor_description":"","transform":Transform3D(-0.992795, 0, -0.119825, 0, 1, 0, 0.119825, 0, -0.992795, -0.123201, 1.24334, 2.51113),"rotation_edit_mode":0,"rotation_order":2,"top_level":false,"visible":true,"visibility_parent":NodePath(""),"script":null)

animator = Object(AnimationPlayer,"_import_path":NodePath(""),"unique_name_in_owner":false,"process_mode":0,"process_priority":0,"process_physics_priority":0,"process_thread_group":0,"editor_description":"","root_node":NodePath(".."),"autoplay":"","reset_on_save":true,"playback_process_mode":1,"playback_default_blend_time":0.0,"speed_scale":1.0,"method_call_mode":0,"audio_max_polyphony":32,"movie_quit_on_finish":false,"libraries":{},"blend_times":[],"script":null)

animation_param_path = ""
animation_id = "Attack"
dialouge_id = "npc_3"
dialouge_name = "Skeleton Sam"
dialouge_url = ""
dialouge_progress = 3
sfx = ExtResource("2_boo3h")
