[gd_resource type="Resource" script_class="Conditional" load_steps=2 format=3 uid="uid://dnlujk744fc4d"]

[ext_resource type="Script" path="res://Scripts/Resources/Conditional.gd" id="1_8ckxa"]

[resource]
script = ExtResource("1_8ckxa")
type = 0
reference = Object(StaticBody3D,"_import_path":NodePath(""),"unique_name_in_owner":false,"process_mode":0,"process_priority":0,"process_physics_priority":0,"process_thread_group":0,"editor_description":"","transform":Transform3D(-1, 0, -8.74228e-08, 0, 1, 0, 8.74228e-08, 0, -1, -4.25382, 0.518313, 3.39027),"rotation_edit_mode":0,"rotation_order":2,"top_level":false,"visible":true,"visibility_parent":NodePath(""),"disable_mode":0,"collision_layer":17,"collision_mask":1,"collision_priority":1.0,"input_ray_pickable":true,"input_capture_on_drag":false,"axis_lock_linear_x":false,"axis_lock_linear_y":false,"axis_lock_linear_z":false,"axis_lock_angular_x":false,"axis_lock_angular_y":false,"axis_lock_angular_z":false,"physics_material_override":null,"constant_linear_velocity":Vector3(0, 0, 0),"constant_angular_velocity":Vector3(0, 0, 0),"script":null)

value = false
