[gd_scene load_steps=4 format=3 uid="uid://cfehfa8ixd8xa"]

[ext_resource type="PackedScene" uid="uid://e45qycxmw86i" path="res://3DObjects/Coffin/Woodencasket_Base.glb" id="1_5f8fl"]
[ext_resource type="PackedScene" uid="uid://bqfo5hmgcsur8" path="res://3DObjects/Coffin/Woodencasket_Cover.glb" id="2_airyc"]
[ext_resource type="Material" uid="uid://bx3oqorb88mc3" path="res://Materials/MT_WoodTiles2.tres" id="2_vk65s"]

[node name="Woodencasket_Base" instance=ExtResource("1_5f8fl")]

[node name="WoodenCoffinBase" parent="." index="0"]
surface_material_override/0 = ExtResource("2_vk65s")

[node name="Woodencasket_Cover" parent="." index="1" instance=ExtResource("2_airyc")]

[node name="WoodenCoffinplate" parent="Woodencasket_Cover" index="0"]
surface_material_override/0 = ExtResource("2_vk65s")

[editable path="Woodencasket_Cover"]
