{  
	"intro": {
	"1": {
	  	"conversation": "Once upon a time…;Somewhere not that far…;Not so long ago…"
		},
	"2": {
	  	"conversation": "There was a spooky town.;It enchanted everyone due to its Halloween thematic;thus the name: [wave]Enchanted Hollow.[/wave]"
		},
	"3": {
		"conversation": "All sorts of spooky folks lived here."
		},
	"4": {
		"conversation": "Dead, undead… but always alive."
		},
	"5": {
		"conversation": "For some, it’s a job, a hobby or simply home. Depends on how you see it."
		}
	},
  "npc_1": {
	"1": {
	  "conversation": "Hello I am jack ; I love to eat food ; and this is halloween town"
	},
	"2": {
	  "conversation": "Hey, I am sam"
	}
  },
  "npc_2": {
	"1": {
	  "conversation": "hello there I am SAM; have you seen the hand couple?; they seemed to be distressed"
	},
	"2": {
	  "conversation": "welcome"
	}
  },
  "npc_3": {
	"1": {
	  "conversation": "hello there I am SAM; have you seen the hand couple?; they seemed to be distressed"
	},
	"2": {
	  "conversation": "I heard they mention a lost ring somewhere"
	},
	"3": {
		"conversation": "Perhaps you can pay them a visit"
	}
},

	"hand_couple": {
		"1": {
		  "conversation": "I cant believe it!; How could you simply lose the only material thing WE cared for?!"
		},
		"2": {
		  "conversation": "But honey, listen, I didnt simply lose it, dear, I, uh…"
		},
		"3": {
			"conversation": "If you don’t tell me the truth, neither one of us can rest in peace!; Do you realize that? 'Until death do us apart'... I wish."
		},
		"4": {
			"conversation": "Oh man… can’t catch a break, even dead!"
		},
		"5": {
			"conversation": "Hey, Jack old pal! You heard everything?; …May I ask you a favor?"
		},
		"6":{
			  "conversation": "SURE THING!"
		},
		"7":{
			"conversation": "Oh right, yeah! Of course! Anyway, let me tell you…"
		},
		"8":{
			"conversation": "See that place over there? I was going to gather some flowers for Helen to celebrate our death day. The day we reunited in death."
		},
		"9":{
			"conversation": "Jack, can you go over there and find the ring for me?"
		}
	
  },
  "hand_couple_final": {
	"1": {
	  "conversation": "[sobbing] How could he…?"
	},
	"2": {
	  "conversation": "Hey, Jack!"
	},
	"3": {
		"conversation": "Mr. Jack, he-hello! May I help you?"
	},
	"4": {
		"conversation": "Actually, honey, Jack wants to give you something."
	},
	"5": {
		"conversation": "THERE YOU GO ;[the items are handed to Helen by Tim]"
	},
	"6":{
		  "conversation": "Oh, honey… you found it!; What about the flowers?"
	},
	"7":{
		"conversation": "I picked them myself. See? All your favorite ones.; that’s why I dropped our ring. A swarm of bees went my way."
	},
	"8":{
		"conversation": "And why would you be afraid? You’re already dead!"
	},
	"9":{
		"conversation": "[sighs] I’m afraid of insects in general, OK?! Yes, even in death!"
	},
	"10":{
		"conversation": "That doesn’t matter. I loved it. Tim… I’m sorry."
	},
	"11":{
		"conversation": "No need to be sorry, honey. We can celebrate our “do us apart” day on a beautiful night."
	},
	"12":{
		"conversation": "Jack… Thank you so much!"
	},
	"13":{
		"conversation": "Yes, Mr. Jack, thank you!"
	}

}
}
