[gd_resource type="StandardMaterial3D" format=3 uid="uid://cqerm0c5ck0i7"]

[resource]
albedo_color = Color(0.133333, 0.752941, 0.34902, 1)
emission_enabled = true
emission = Color(0.211765, 1, 0.772549, 1)
emission_energy_multiplier = 16.0
