[gd_resource type="StandardMaterial3D" load_steps=2 format=3 uid="uid://cljw6l0th2irj"]

[ext_resource type="Texture2D" uid="uid://doptjhdmce42j" path="res://Textures/DirtGroundPainted1_Normal.png" id="2_76wny"]

[resource]
metallic = 0.51
emission_enabled = true
emission = Color(0.65098, 0.45098, 0, 1)
emission_energy_multiplier = 1.84
normal_texture = ExtResource("2_76wny")
