[gd_resource type="StandardMaterial3D" load_steps=3 format=3 uid="uid://bja13c8e61asw"]

[ext_resource type="Texture2D" uid="uid://cbupnc2xkh4ey" path="res://Textures/Skull_BaseColor.png" id="1_3t7up"]
[ext_resource type="Texture2D" uid="uid://dowrsqnsapf8e" path="res://Textures/Skull_Normal.png" id="2_f2uxg"]

[resource]
albedo_texture = ExtResource("1_3t7up")
normal_enabled = true
normal_texture = ExtResource("2_f2uxg")
