[gd_resource type="StandardMaterial3D" load_steps=3 format=3 uid="uid://bx3oqorb88mc3"]

[ext_resource type="Texture2D" uid="uid://bu5x7e0akkan0" path="res://Textures/WoodTiles2_albedo.png" id="1_mul0l"]
[ext_resource type="Texture2D" uid="uid://berx7s0ljxniq" path="res://Textures/WoodTiles2_normal.png" id="2_fuhnr"]

[resource]
albedo_texture = ExtResource("1_mul0l")
normal_enabled = true
normal_texture = ExtResource("2_fuhnr")
