[gd_resource type="StandardMaterial3D" load_steps=3 format=3 uid="uid://b27etekxtsiya"]

[ext_resource type="Texture2D" uid="uid://bolnrhv50qa2k" path="res://Textures/Characters/Skeleton_BaseColor.png" id="1_cfmca"]
[ext_resource type="Texture2D" uid="uid://dl33sok80gxbc" path="res://Textures/Characters/Skeleton_Normal.png" id="2_fxh3a"]

[resource]
albedo_texture = ExtResource("1_cfmca")
normal_enabled = true
normal_texture = ExtResource("2_fxh3a")
